<?xml version="1.0" encoding="UTF-8" standalone="no"?>
<svg
   version="1.2"
   id="openrndr-svg"
   y="0.0"
   width="148mm"
   x="0.0"
   height="105mm"
   sodipodi:docname="ofAppTextsToExportToPNG.svg"
   inkscape:version="1.2.2 (b0a8486541, 2022-12-01)"
   viewBox="0 0 148 105"
   xmlns:inkscape="http://www.inkscape.org/namespaces/inkscape"
   xmlns:sodipodi="http://sodipodi.sourceforge.net/DTD/sodipodi-0.dtd"
   xmlns="http://www.w3.org/2000/svg"
   xmlns:svg="http://www.w3.org/2000/svg">
  <defs
     id="defs9379" />
  <sodipodi:namedview
     id="namedview9377"
     pagecolor="#ffffff"
     bordercolor="#eeeeee"
     borderopacity="1"
     inkscape:showpageshadow="0"
     inkscape:pageopacity="0"
     inkscape:pagecheckerboard="true"
     inkscape:deskcolor="#c8c8c8"
     showgrid="false"
     inkscape:document-units="mm"
     inkscape:zoom="2.3633727"
     inkscape:cx="171.1537"
     inkscape:cy="198.44521"
     inkscape:window-width="3840"
     inkscape:window-height="2133"
     inkscape:window-x="0"
     inkscape:window-y="0"
     inkscape:window-maximized="1"
     inkscape:current-layer="openrndr-svg" />
  <text
     xml:space="preserve"
     style="font-style:normal;font-variant:normal;font-weight:bold;font-stretch:normal;font-size:11.2889px;line-height:normal;font-family:'Open Sans';-inkscape-font-specification:'Open Sans Bold';text-decoration-color:#000000;vector-effect:non-scaling-stroke;fill:#e5e5e5;fill-opacity:1;stroke:#505050;stroke-width:0.264583;stroke-opacity:1;-inkscape-stroke:hairline;stop-color:#000000"
     x="59.230186"
     y="33.292507"
     id="text307"
     inkscape:export-filename="sleep.png"
     inkscape:export-xdpi="150"
     inkscape:export-ydpi="150"><tspan
       sodipodi:role="line"
       id="tspan305"
       style="font-style:normal;font-variant:normal;font-weight:bold;font-stretch:normal;font-size:11.2889px;font-family:'Open Sans';-inkscape-font-specification:'Open Sans Bold';fill:#e5e5e5;fill-opacity:1;stroke:#505050;stroke-width:0.264583;stroke-opacity:1"
       x="59.230186"
       y="33.292507">sleep</tspan></text>
  <text
     xml:space="preserve"
     style="font-style:normal;font-variant:normal;font-weight:bold;font-stretch:normal;font-size:11.2889px;line-height:normal;font-family:'Open Sans';-inkscape-font-specification:'Open Sans Bold';text-decoration-color:#000000;vector-effect:non-scaling-stroke;fill:#e5e5e5;fill-opacity:1;stroke:#505050;stroke-width:0.264583;stroke-opacity:1;-inkscape-stroke:hairline;stop-color:#000000"
     x="50.487911"
     y="53.068634"
     id="text311"
     inkscape:export-filename="wakeup.png"
     inkscape:export-xdpi="150"
     inkscape:export-ydpi="150"><tspan
       sodipodi:role="line"
       style="font-style:normal;font-variant:normal;font-weight:bold;font-stretch:normal;font-size:11.2889px;font-family:'Open Sans';-inkscape-font-specification:'Open Sans Bold';fill:#e5e5e5;fill-opacity:1;stroke:#505050;stroke-width:0.264583;stroke-opacity:1"
       x="50.487911"
       y="53.068634"
       id="tspan315">wake up</tspan></text>
  <text
     xml:space="preserve"
     style="font-style:normal;font-variant:normal;font-weight:bold;font-stretch:normal;font-size:11.2889px;line-height:normal;font-family:'Open Sans';-inkscape-font-specification:'Open Sans Bold';text-decoration-color:#000000;vector-effect:non-scaling-stroke;fill:#e5e5e5;fill-opacity:1;stroke:#505050;stroke-width:0.264583;stroke-opacity:1;-inkscape-stroke:hairline;stop-color:#000000"
     x="62.474087"
     y="72.844757"
     id="text323"
     inkscape:export-filename="quit.png"
     inkscape:export-xdpi="150"
     inkscape:export-ydpi="150"><tspan
       sodipodi:role="line"
       id="tspan321"
       style="font-style:normal;font-variant:normal;font-weight:bold;font-stretch:normal;font-size:11.2889px;font-family:'Open Sans';-inkscape-font-specification:'Open Sans Bold';fill:#e5e5e5;fill-opacity:1;stroke:#505050;stroke-width:0.264583;stroke-opacity:1"
       x="62.474087"
       y="72.844757">quit</tspan></text>
</svg>
